Reproducible research Ilka van Vliet
…
activity <- read_csv("activity.csv")

## Parsed with column specification:
## cols(
##   steps = col_integer(),
##   date = col_date(format = ""),
##   interval = col_integer()
## )

clean up and process data

drop_na(activity)

## # A tibble: 15,264 x 3
##    steps       date interval
##    <int>     <date>    <int>
##  1     0 2012-10-02        0
##  2     0 2012-10-02        5
##  3     0 2012-10-02       10
##  4     0 2012-10-02       15
##  5     0 2012-10-02       20
##  6     0 2012-10-02       25
##  7     0 2012-10-02       30
##  8     0 2012-10-02       35
##  9     0 2012-10-02       40
## 10     0 2012-10-02       45
## # ... with 15,254 more rows
…
